Rettke-Sam-ada-homework-4
…
Challenge 2

*facet plots of confirmed coronavirus infections, deaths, and recoveries by country

cv_summary(cv_data, country_list = c("United States", "United Kingdom", "Germany", "South Africa", "China", "Russia", "Iran", "India"),
  plot = TRUE, facet = "country",
  status = c("confirmed", "deaths", "recovered"))

## `summarise()` has grouped output by 'country'. You can override using the `.groups` argument.

## $totals
## # A tibble: 48 x 13
##    country variable   cases population   area density    rate gdp_capita income 
##    <chr>   <chr>      <dbl>      <dbl>  <dbl>   <dbl>   <dbl>      <dbl> <chr>  
##  1 China   confirmed 1.04e5 1402112000 9.42e6    149. 7.40e+1     10431. Upper ~
##  2 China   daily_co~ 1.51e4 1402112000 9.42e6    149. 1.08e+1     10431. Upper ~
##  3 China   daily_de~ 1.29e3 1402112000 9.42e6    149. 9.20e-1     10431. Upper ~
##  4 China   daily_re~ 4.00e3 1402112000 9.42e6    149. 2.85e+0     10431. Upper ~
##  5 China   deaths    4.85e3 1402112000 9.42e6    149. 3.46e+0     10431. Upper ~
##  6 China   recovered 9.84e4 1402112000 9.42e6    149. 7.02e+1     10431. Upper ~
##  7 Germany confirmed 3.74e6   83240525 3.49e5    238. 4.49e+4     41259. High i~
##  8 Germany daily_co~ 4.53e4   83240525 3.49e5    238. 5.45e+2     41259. High i~
##  9 Germany daily_de~ 1.73e3   83240525 3.49e5    238. 2.08e+1     41259. High i~
## 10 Germany daily_re~ 4.45e4   83240525 3.49e5    238. 5.35e+2     41259. High i~
## # ... with 38 more rows, and 4 more variables: life_expectancy <dbl>,
## #   max_sd <dbl>, max_mr <dbl>, on <date>
## 
## $cum_cases_plot
…
Challenge 2 cont.

*facet plots of confirmed coronavirus infections, deaths, and recoveries by variable

cv_summary(cv_data, country_list = c("United States", "United Kingdom", "Germany", "South Africa", "China", "Russia", "Iran", "India"),
  plot = TRUE, facet = "variable",
  status = c("confirmed", "deaths", "recovered"))

## `summarise()` has grouped output by 'country'. You can override using the `.groups` argument.

## $totals
## # A tibble: 48 x 13
##    country variable   cases population   area density    rate gdp_capita income 
##    <chr>   <chr>      <dbl>      <dbl>  <dbl>   <dbl>   <dbl>      <dbl> <chr>  
##  1 China   confirmed 1.04e5 1402112000 9.42e6    149. 7.40e+1     10431. Upper ~
##  2 China   daily_co~ 1.51e4 1402112000 9.42e6    149. 1.08e+1     10431. Upper ~
##  3 China   daily_de~ 1.29e3 1402112000 9.42e6    149. 9.20e-1     10431. Upper ~
##  4 China   daily_re~ 4.00e3 1402112000 9.42e6    149. 2.85e+0     10431. Upper ~
##  5 China   deaths    4.85e3 1402112000 9.42e6    149. 3.46e+0     10431. Upper ~
##  6 China   recovered 9.84e4 1402112000 9.42e6    149. 7.02e+1     10431. Upper ~
##  7 Germany confirmed 3.74e6   83240525 3.49e5    238. 4.49e+4     41259. High i~
##  8 Germany daily_co~ 4.53e4   83240525 3.49e5    238. 5.45e+2     41259. High i~
##  9 Germany daily_de~ 1.73e3   83240525 3.49e5    238. 2.08e+1     41259. High i~
## 10 Germany daily_re~ 4.45e4   83240525 3.49e5    238. 5.35e+2     41259. High i~
## # ... with 38 more rows, and 4 more variables: life_expectancy <dbl>,
## #   max_sd <dbl>, max_mr <dbl>, on <date>
## 
## $cum_cases_plot
…
## Warning in max(rate, na.rm = TRUE): no non-missing arguments to max; returning
## -Inf

## Warning in max(rate, na.rm = TRUE): no non-missing arguments to max; returning
## -Inf

## `summarise()` has grouped output by 'country'. You can override using the `.groups` argument.

d <- d[[1]]
d <- filter(d, population > 1000000) %>%
  arrange(population) %>%
  print #arranged in order of increasing pop. to show all pop. are > 1 million

## # A tibble: 930 x 13
##    country  variable   cases population  area density   rate gdp_capita income  
##    <chr>    <chr>      <dbl>      <dbl> <dbl>   <dbl>  <dbl>      <dbl> <chr>   
##  1 Eswatini confirmed  19084    1160164 17200    67.5 1.64e4      3719. Lower m~
##  2 Eswatini daily_con~  1017    1160164 17200    67.5 8.77e2      3719. Lower m~
##  3 Eswatini daily_dea~    24    1160164 17200    67.5 2.07e1      3719. Lower m~
##  4 Eswatini daily_rec~  1037    1160164 17200    67.5 8.94e2      3719. Lower m~
##  5 Eswatini deaths       678    1160164 17200    67.5 5.84e2      3719. Lower m~
##  6 Eswatini recovered  18107    1160164 17200    67.5 1.56e4      3719. Lower m~
##  7 Cyprus   confirmed  76552    1207361  9240   131.  6.34e4     30438. High in~
##  8 Cyprus   daily_con~  1031    1207361  9240   131.  8.54e2     30438. High in~
##  9 Cyprus   daily_dea~     7    1207361  9240   131.  5.80e0     30438. High in~
## 10 Cyprus   daily_rec~ 34815    1207361  9240   131.  2.88e4     30438. High in~
## # ... with 920 more rows, and 4 more variables: life_expectancy <dbl>,
## #   max_sd <dbl>, max_mr <dbl>, on <date>
…
## [1] 155

Challenge 4

*create new tibbles for overall and daily that include only data on the variables confirmed and daily_confirmed cases, respectively

overall <- filter(d, variable == "confirmed")
daily <- filter(d, variable == "daily_confirmed")

Bahrain, Czechia, Slovenia, Uruguay, and Sweden have the highest overall rate of confirmed cases.

overall_by_rate <- arrange(overall, desc(rate)) %>%
  print  

## # A tibble: 155 x 13
##    country  variable   cases population   area density   rate gdp_capita income 
##    <chr>    <chr>      <dbl>      <dbl>  <dbl>   <dbl>  <dbl>      <dbl> <chr>  
##  1 Bahrain  confirmed 2.66e5    1701583 7.8 e2  2182.  1.56e5     19257. High i~
##  2 Czechia  confirmed 1.67e6   10698896 7.72e4   139.  1.56e5     18984. High i~
##  3 Slovenia confirmed 2.57e5    2100126 2.01e4   104.  1.23e5     22915. High i~
##  4 Uruguay  confirmed 3.69e5    3473727 1.75e5    19.8 1.06e5     15045. High i~
##  5 Sweden   confirmed 1.09e6   10353442 4.07e5    25.4 1.05e5     51621. High i~
##  6 Serbia   confirmed 7.17e5    6908224 8.75e4    79.0 1.04e5      6533. Upper ~
##  7 United ~ confirmed 3.37e7  329484123 9.15e6    36.0 1.02e5     58510. High i~
##  8 Lithuan~ confirmed 2.79e5    2794700 6.26e4    44.6 9.97e4     17033. High i~
##  9 Georgia  confirmed 3.66e5    3714000 6.95e4    65.0 9.86e4      4487. Upper ~
## 10 Argenti~ confirmed 4.47e6   45376763 2.74e6    16.6 9.85e4     11342. Upper ~
## # ... with 145 more rows, and 4 more variables: life_expectancy <dbl>,
## #   max_sd <dbl>, max_mr <dbl>, on <date>

Turkey, Sweden, Switzerland, Uruguay, and Belgium have the highest single-day rate of confirmed cases.

daily_by_rate <- arrange(daily, desc(rate)) %>%
  print

## # A tibble: 155 x 13
##    country     variable  cases population   area density  rate gdp_capita income
##    <chr>       <chr>     <dbl>      <dbl>  <dbl>   <dbl> <dbl>      <dbl> <chr> 
##  1 Turkey      daily_c~ 823225   84339067 7.70e5   110.  9761.     12035. Upper~
##  2 Sweden      daily_c~  32485   10353442 4.07e5    25.4 3138.     51621. High ~
##  3 Switzerland daily_c~  21926    8636896 3.95e4   219.  2539.     85682. High ~
##  4 Uruguay     daily_c~   7289    3473727 1.75e5    19.8 2098.     15045. High ~
##  5 Belgium     daily_c~  23921   11555997 3.03e4   382.  2070.     39960. High ~
##  6 Spain       daily_c~  93822   47351567 5.00e5    94.8 1981.     24935. High ~
##  7 Bahrain     daily_c~   3273    1701583 7.8 e2  2182.  1924.     19257. High ~
##  8 France      daily_c~ 117902   67391582 5.48e5   123.  1750.     35765. High ~
##  9 Kyrgyzstan  daily_c~  11505    6591600 1.92e5    34.4 1745.      1098. Lower~
## 10 Czechia     daily_c~  17773   10698896 7.72e4   139.  1661.     18984. High ~
## # ... with 145 more rows, and 4 more variables: life_expectancy <dbl>,
## #   max_sd <dbl>, max_mr <dbl>, on <date>

United States, India, Brazil, France, and Russia have the highest overall total of cases.

overall_by_cases <- arrange(overall, desc(cases)) %>%
  print

## # A tibble: 155 x 13
##    country  variable   cases population   area density   rate gdp_capita income 
##    <chr>    <chr>      <dbl>      <dbl>  <dbl>   <dbl>  <dbl>      <dbl> <chr>  
##  1 United ~ confirmed 3.37e7  329484123 9.15e6   36.0  1.02e5     58510. High i~
##  2 India    confirmed 3.04e7 1380004385 2.97e6  464.   2.20e4      1798. Lower ~
##  3 Brazil   confirmed 1.86e7  212559409 8.36e6   25.4  8.73e4      8229. Upper ~
##  4 France   confirmed 5.98e6   67391582 5.48e5  123.   8.87e4     35765. High i~
##  5 Russia   confirmed 5.45e6  144104080 1.64e7    8.80 3.78e4     11787. Upper ~
##  6 Turkey   confirmed 5.43e6   84339067 7.70e5  110.   6.43e4     12035. Upper ~
##  7 United ~ confirmed 4.82e6   67215293 2.42e5  278.   7.17e4     41811. High i~
##  8 Argenti~ confirmed 4.47e6   45376763 2.74e6   16.6  9.85e4     11342. Upper ~
##  9 Italy    confirmed 4.26e6   59554023 2.98e5  200.   7.15e4     29287. High i~
## 10 Colombia confirmed 4.24e6   50882884 1.11e6   45.9  8.33e4      5889. Upper ~
## # ... with 145 more rows, and 4 more variables: life_expectancy <dbl>,
## #   max_sd <dbl>, max_mr <dbl>, on <date>

Turkey, India, United States, France, and Brazil have the highest single-day total of cases.

daily_by_cases <- arrange(daily, desc(cases)) %>%
  print

## # A tibble: 155 x 13
##    country  variable   cases population    area density  rate gdp_capita income 
##    <chr>    <chr>      <dbl>      <dbl>   <dbl>   <dbl> <dbl>      <dbl> <chr>  
##  1 Turkey   daily_co~ 823225   84339067  7.70e5   110.  9761.     12035. Upper ~
##  2 India    daily_co~ 414188 1380004385  2.97e6   464.   300.      1798. Lower ~
##  3 United ~ daily_co~ 303186  329484123  9.15e6    36.0  920.     58510. High i~
##  4 France   daily_co~ 117902   67391582  5.48e5   123.  1750.     35765. High i~
##  5 Brazil   daily_co~ 115228  212559409  8.36e6    25.4  542.      8229. Upper ~
##  6 Spain    daily_co~  93822   47351567  5.00e5    94.8 1981.     24935. High i~
##  7 United ~ daily_co~  68192   67215293  2.42e5   278.  1015.     41811. High i~
##  8 Germany  daily_co~  45333   83240525  3.49e5   238.   545.     41259. High i~
##  9 Argenti~ daily_co~  41080   45376763  2.74e6    16.6  905.     11342. Upper ~
## 10 Italy    daily_co~  40902   59554023  2.98e5   200.   687.     29287. High i~
## # ... with 145 more rows, and 4 more variables: life_expectancy <dbl>,
## #   max_sd <dbl>, max_mr <dbl>, on <date>
…
## 
## Attaching package: 'jtools'

## The following object is masked from 'package:BBmisc':
## 
##     %nin%

#filter out missing gdp_capita values
overall_adj <- filter(overall, gdp_capita != "NA") %>%
  select(rate, density, population, gdp_capita, income) %>%
  print

## # A tibble: 152 x 5
##       rate density population gdp_capita income             
##      <dbl>   <dbl>      <dbl>      <dbl> <chr>              
##  1  16449.    67.5    1160164      3719. Lower middle income
##  2  63404.   131.     1207361     30438. High income        
##  3   1500.   624.     1265740      9061. Upper middle income
##  4   6995.    88.7    1318442      1286. Lower middle income
##  5  98466.    30.6    1331057     19736. High income        
##  6  23432.   273.     1399491     14876. High income        
##  7   6225.    50.0    1402985      6778. Upper middle income
##  8 156223.  2182.     1701583     19257. High income        
##  9  72272.    30.6    1901548     15488. High income        
## 10   1961.    70.0    1967998       619. Low income         
## # ... with 142 more rows
…
detach(package:MASS)

Challenge 6 cont.

*repeat process to determine the best model for maximum daily infection rate

library(car)
library(broom)
library(jtools)
#filter out missing gdp_capita values
daily_adj <- filter(daily, gdp_capita != "NA") %>%
  select(rate, density, population, gdp_capita, income) %>%
  print

## # A tibble: 152 x 5
##      rate density population gdp_capita income             
##     <dbl>   <dbl>      <dbl>      <dbl> <chr>              
##  1  877.     67.5    1160164      3719. Lower middle income
##  2  854.    131.     1207361     30438. High income        
##  3   84.5   624.     1265740      9061. Upper middle income
##  4  325.     88.7    1318442      1286. Lower middle income
##  5 1470.     30.6    1331057     19736. High income        
##  6  506.    273.     1399491     14876. High income        
##  7 1247.     50.0    1402985      6778. Upper middle income
##  8 1924.   2182.     1701583     19257. High income        
##  9  979.     30.6    1901548     15488. High income        
## 10   79.3    70.0    1967998       619. Low income         
## # ... with 142 more rows
…
detach(package:MASS)

Challenge 7

*add in the maximum social distancing (max_sd) and maximum movement restriction (max_mr) score per country to the best model for maximum daily infection rate

library(car)
library(broom)
library(jtools)
#filter out instances where max_sd = 0
new_daily_adj <- filter(daily, max_sd >0) %>%
  select(rate, population, income, max_sd, max_mr) %>%
  print

## # A tibble: 152 x 5
##      rate population income              max_sd max_mr
##     <dbl>      <dbl> <chr>                <dbl>  <dbl>
##  1  877.     1160164 Lower middle income      8     10
##  2  854.     1207361 High income             22     13
##  3   84.5    1265740 Upper middle income      2     11
##  4  325.     1318442 Lower middle income      5      5
##  5 1470.     1331057 High income             13      7
##  6  506.     1399491 High income             16     17
##  7 1247.     1402985 Upper middle income     15     21
##  8 1924.     1701583 High income              6      8
##  9  979.     1901548 High income             14      7
## 10   79.3    1967998 Low income              17     15
## # ... with 142 more rows
…
## The following object is masked from 'package:patchwork':
## 
##     area

## The following object is masked from 'package:dplyr':
## 
##     select

library(MuMIn)
#filter the original cv_data tibble
new_cv_data <- filter(cv_data, population > 1000000 & variable == "daily_confirmed" & rate > 0 & gdp_capita != "NA") %>%
  print

## # A tibble: 61,798 x 40
##    iso3c country     date       ecdc_cases ecdc_deaths total_tests tests_units
##    <chr> <chr>       <date>          <dbl>       <dbl>       <dbl> <chr>      
##  1 AFG   Afghanistan 2020-02-24         NA          NA          NA <NA>       
##  2 AFG   Afghanistan 2020-03-07          1           0          NA <NA>       
##  3 AFG   Afghanistan 2020-03-11          7           0          NA <NA>       
##  4 AFG   Afghanistan 2020-03-14          7           0          NA <NA>       
##  5 AFG   Afghanistan 2020-03-15         10           0          NA <NA>       
##  6 AFG   Afghanistan 2020-03-16         16           0          NA <NA>       
##  7 AFG   Afghanistan 2020-03-17         21           0          NA <NA>       
##  8 AFG   Afghanistan 2020-03-22         24           0          NA <NA>       
##  9 AFG   Afghanistan 2020-03-23         34           0          NA <NA>       
## 10 AFG   Afghanistan 2020-03-24         40           1          NA <NA>       
## # ... with 61,788 more rows, and 33 more variables: positive_rate <dbl>,
## #   hosp_patients <dbl>, icu_patients <dbl>, total_vaccinations <dbl>,
## #   soc_dist <dbl>, mov_rest <dbl>, pub_health <dbl>, gov_soc_econ <dbl>,
## #   lockdown <dbl>, apple_mtr_driving <dbl>, apple_mtr_walking <dbl>,
## #   apple_mtr_transit <dbl>, gcmr_place_id <chr>, gcmr_retail_recreation <dbl>,
## #   gcmr_grocery_pharmacy <dbl>, gcmr_parks <dbl>, gcmr_transit_stations <dbl>,
## #   gcmr_workplaces <dbl>, gcmr_residential <dbl>, gtrends_score <dbl>, ...
…
